{
    "benchmark":"tpc-h",
    "tools_dir":"tpc-benchmark/tpc-h/tools",
    "dbname":"tpch1",
    "db_schema_name":"public",
    "scale":1,
    "output_dir":"tpch_out",
    "materialize_views":false,
    "schema_only":false
}